Get rough timeline overview of package failing events — package_failures_over_time • BiocBuildDB
…
This hopefully can help determine if package failures are intermittent and
how long a package is failing on a given builder.

    See also

    get_bbs_table

    Author

    Lori Shepherd

    Examples

package_failures_over_time("BiocFileCache", "nebbiolo1", 24)
#> # A tibble: 21 × 7
#>    version    episode first_failure       last_failure        n_failures stages 
#>    <pckg_vrs>   <int> <dttm>              <dttm>                   <int> <chr>  
#>  1 3.1.0           12 2025-12-19 02:17:53 2025-12-19 02:17:53          1 checks…
#>  2 3.1.0           11 2025-12-15 02:57:57 2025-12-16 21:29:20          3 builds…
#>  3 3.1.0           10 2025-12-13 02:32:33 2025-12-13 02:32:33          1 checks…
#>  4 3.1.0            9 2025-12-08 21:30:14 2025-12-11 21:27:29          4 builds…
#>  5 3.1.0            8 2025-12-05 21:26:25 2025-12-05 21:26:25          1 builds…
#>  6 3.1.0            7 2025-12-01 21:30:34 2025-12-03 21:39:35          3 builds…
#>  7 3.1.0            6 2025-11-25 21:30:29 2025-11-26 21:28:08          2 builds…
#>  8 3.1.0            5 2025-11-22 02:27:43 2025-11-22 02:27:43          1 checks…
#>  9 3.1.0            4 2025-11-18 02:32:56 2025-11-18 02:32:56          1 checks…
#> 10 3.1.0            3 2025-11-15 02:26:25 2025-11-15 02:26:25          1 checks…
#> # ℹ 11 more rows
#> # ℹ 1 more variable: statuses <chr>
…
