Get the last_modified_date for all current report.tgz — reports_last_mod_table • BiocBuildDB
…
reports_last_mod_table()

    Value

    A data frame with one row per report.tgz file

    Author

    Sean Davis <seandavi@gmail.com>

    Examples

res = reports_last_mod_table()
res
#> # A tibble: 119 × 2
#>    url                                                       last_modified      
#>    <chr>                                                     <dttm>             
#>  1 https://bioconductor.org/checkResults/3.23/bioc-LATEST/r… 2026-01-01 16:36:28
#>  2 https://bioconductor.org/checkResults/3.23/bioc-gpu-LATE… 2026-01-02 06:45:04
#>  3 https://bioconductor.org/checkResults/3.23/data-annotati… 2025-12-31 12:00:08
#>  4 https://bioconductor.org/checkResults/3.23/data-experime… 2026-01-01 20:01:37
#>  5 https://bioconductor.org/checkResults/3.23/workflows-LAT… 2025-12-30 21:30:05
#>  6 https://bioconductor.org/checkResults/3.23/books-LATEST/… 2025-12-31 19:30:05
#>  7 https://bioconductor.org/checkResults/3.23/bioc-longtest… 2025-12-28 04:55:02
#>  8 https://bioconductor.org/checkResults/3.22/bioc-LATEST/r… 2026-01-01 17:00:02
#>  9 https://bioconductor.org/checkResults/3.22/bioc-gpu-LATE… 2026-01-02 07:30:04
#> 10 https://bioconductor.org/checkResults/3.22/data-annotati… 2025-12-31 11:45:08
#> # ℹ 109 more rows
…
