…
This is useful for tracking when a package was updated in different
Bioconductor releases.

### Package Error Counts

The
[`package_error_count()`](https://seandavi.github.io/BiocBuildDB/reference/package_error_count.md)
function provides statistics on how often a package has failed during
builds:

``` r
# Get error counts for BiocFileCache
bfc_errors <- package_error_count("BiocFileCache")
bfc_errors
#> # A tibble: 408 × 6
#>    node      version    stage    count_total count_error git_branch  
#>    <chr>     <pckg_vrs> <chr>          <int>       <int> <chr>       
#>  1 machv2    2.0.0      buildbin           1           0 RELEASE_3_13
#>  2 machv2    2.0.0      buildsrc           1           0 RELEASE_3_13
#>  3 machv2    2.0.0      checksrc           1           0 RELEASE_3_13
#>  4 machv2    2.0.0      install            1           0 RELEASE_3_13
#>  5 nebbiolo1 2.0.0      buildsrc           1           0 RELEASE_3_13
#>  6 nebbiolo1 2.0.0      checksrc           1           0 RELEASE_3_13
#>  7 nebbiolo1 2.0.0      install            1           0 RELEASE_3_13
#>  8 tokay2    2.0.0      buildbin           1           0 RELEASE_3_13
#>  9 tokay2    2.0.0      buildsrc           1           0 RELEASE_3_13
#> 10 tokay2    2.0.0      checksrc           1           0 RELEASE_3_13
#> # ℹ 398 more rows

# Filter to a specific branch
bfc_errors_release <- package_error_count("BiocFileCache", branch = "RELEASE_3_22")
bfc_errors_release
#> # A tibble: 22 × 6
#>    node      version    stage    count_total count_error git_branch  
#>    <chr>     <pckg_vrs> <chr>          <int>       <int> <chr>       
#>  1 kjohnson1 3.0.0      buildbin           6           0 RELEASE_3_22
#>  2 kjohnson1 3.0.0      buildsrc           8           2 RELEASE_3_22
#>  3 kjohnson1 3.0.0      checksrc           6           2 RELEASE_3_22
#>  4 kjohnson1 3.0.0      install            8           0 RELEASE_3_22
#>  5 kjohnson3 3.0.0      buildbin           8           0 RELEASE_3_22
#>  6 kjohnson3 3.0.0      buildsrc          10           2 RELEASE_3_22
#>  7 kjohnson3 3.0.0      checksrc           8           0 RELEASE_3_22
#>  8 kjohnson3 3.0.0      install           10           0 RELEASE_3_22
#>  9 lconway   3.0.0      buildbin           4           0 RELEASE_3_22
#> 10 lconway   3.0.0      buildsrc           5           1 RELEASE_3_22
#> # ℹ 12 more rows
…
